{
  "result": [
    {
      "id": "234234243423aaabb334342aaa343434",
      "name": "githubusercontent.com",
      "status": "pending",
      "paused": false,
      "type": "full",
      "development_mode": 0,
      "name_servers": [
        "alice.ns.cloudflare.com",
        "tom.ns.cloudflare.com"
      ],
      "original_name_servers": [],
      "original_registrar": null,
      "original_dnshost": null,
      "modified_on": "2017-02-20T04:06:46.019706Z",
      "created_on": "2017-02-20T04:05:51.683040Z",
      "meta": {
        "step": 4,
        "wildcard_proxiable": false,
        "custom_certificate_quota": 0,
        "page_rule_quota": 3,
        "phishing_detected": false,
        "multiple_railguns_allowed": false
      },
      "owner": {
        "type": "user",
        "id": "334234243423aaabb334342aaa343433",
        "email": "noreply@github.com"
      },
      "permissions": [
        "#analytics:read",
        "#billing:edit",
        "#billing:read",
        "#cache_purge:edit",
        "#dns_records:edit",
        "#dns_records:read",
        "#lb:edit",
        "#lb:read",
        "#logs:read",
        "#organization:edit",
        "#organization:read",
        "#ssl:edit",
        "#ssl:read",
        "#waf:edit",
        "#waf:read",
        "#zone:edit",
        "#zone:read",
        "#zone_settings:edit",
        "#zone_settings:read"
      ],
      "plan": {
        "id": "0feeeeeeeeeeeeeeeeeeeeeeeeeeeeee",
        "name": "Free Website",
        "price": 0,
        "currency": "USD",
        "frequency": "",
        "is_subscribed": true,
        "can_subscribe": false,
        "legacy_id": "free",
        "legacy_discount": false,
        "externally_managed": false
      }
    },
    {
      "id": "234234243423aaabb334342aaa343435",
      "name": "unit.tests",
      "status": "pending",
      "paused": false,
      "type": "full",
      "development_mode": 0,
      "name_servers": [
        "alice.ns.cloudflare.com",
        "tom.ns.cloudflare.com"
      ],
      "original_name_servers": [],
      "original_registrar": null,
      "original_dnshost": null,
      "modified_on": "2017-02-20T04:10:23.687329Z",
      "created_on": "2017-02-20T04:10:18.294562Z",
      "meta": {
        "step": 4,
        "wildcard_proxiable": false,
        "custom_certificate_quota": 0,
        "page_rule_quota": 3,
        "phishing_detected": false,
        "multiple_railguns_allowed": false
      },
      "owner": {
        "type": "user",
        "id": "334234243423aaabb334342aaa343433",
        "email": "noreply@github.com"
      },
      "permissions": [
        "#analytics:read",
        "#billing:edit",
        "#billing:read",
        "#cache_purge:edit",
        "#dns_records:edit",
        "#dns_records:read",
        "#lb:edit",
        "#lb:read",
        "#logs:read",
        "#organization:edit",
        "#organization:read",
        "#ssl:edit",
        "#ssl:read",
        "#waf:edit",
        "#waf:read",
        "#zone:edit",
        "#zone:read",
        "#zone_settings:edit",
        "#zone_settings:read"
      ],
      "plan": {
        "id": "0feeeeeeeeeeeeeeeeeeeeeeeeeeeeee",
        "name": "Free Website",
        "price": 0,
        "currency": "USD",
        "frequency": "",
        "is_subscribed": true,
        "can_subscribe": false,
        "legacy_id": "free",
        "legacy_discount": false,
        "externally_managed": false
      }
    }
  ],
  "result_info": {
    "page": 2,
    "per_page": 2,
    "total_pages": 2,
    "count": 2,
    "total_count": 4
  },
  "success": true,
  "errors": [],
  "messages": []
}
