{
  "result": [
    {
      "id": "fc12ab34cd5611334422ab3322997650",
      "type": "A",
      "name": "unit.tests",
      "content": "1.2.3.4",
      "proxiable": true,
      "proxied": false,
      "ttl": 300,
      "locked": false,
      "zone_id": "ff12ab34cd5611334422ab3322997650",
      "zone_name": "unit.tests",
      "modified_on": "2017-03-11T18:01:43.054409Z",
      "created_on": "2017-03-11T18:01:43.054409Z",
      "meta": {
        "auto_added": false
      }
    },
    {
      "id": "fc12ab34cd5611334422ab3322997651",
      "type": "A",
      "name": "unit.tests",
      "content": "1.2.3.5",
      "proxiable": true,
      "proxied": false,
      "ttl": 300,
      "locked": false,
      "zone_id": "ff12ab34cd5611334422ab3322997650",
      "zone_name": "unit.tests",
      "modified_on": "2017-03-11T18:01:43.160148Z",
      "created_on": "2017-03-11T18:01:43.160148Z",
      "meta": {
        "auto_added": false
      }
    },
    {
      "id": "fc12ab34cd5611334422ab3322997653",
      "type": "A",
      "name": "www.unit.tests",
      "content": "2.2.3.6",
      "proxiable": true,
      "proxied": false,
      "ttl": 300,
      "locked": false,
      "zone_id": "ff12ab34cd5611334422ab3322997650",
      "zone_name": "unit.tests",
      "modified_on": "2017-03-11T18:01:43.420689Z",
      "created_on": "2017-03-11T18:01:43.420689Z",
      "meta": {
        "auto_added": false
      }
    },
    {
      "id": "fc12ab34cd5611334422ab3322997654",
      "type": "A",
      "name": "www.sub.unit.tests",
      "content": "2.2.3.6",
      "proxiable": true,
      "proxied": false,
      "ttl": 300,
      "locked": false,
      "zone_id": "ff12ab34cd5611334422ab3322997650",
      "zone_name": "unit.tests",
      "modified_on": "2017-03-11T18:01:44.030044Z",
      "created_on": "2017-03-11T18:01:44.030044Z",
      "meta": {
        "auto_added": false
      }
    },
    {
      "id": "fc12ab34cd5611334422ab3322997655",
      "type": "AAAA",
      "name": "aaaa.unit.tests",
      "content": "2601:644:500:e210:62f8:1dff:feb8:947a",
      "proxiable": true,
      "proxied": false,
      "ttl": 600,
      "locked": false,
      "zone_id": "ff12ab34cd5611334422ab3322997650",
      "zone_name": "unit.tests",
      "modified_on": "2017-03-11T18:01:43.843594Z",
      "created_on": "2017-03-11T18:01:43.843594Z",
      "meta": {
        "auto_added": false
      }
    },
    {
      "id": "fc12ab34cd5611334422ab3322997656",
      "type": "CNAME",
      "name": "cname.unit.tests",
      "content": "unit.tests",
      "proxiable": true,
      "proxied": false,
      "ttl": 300,
      "locked": false,
      "zone_id": "ff12ab34cd5611334422ab3322997650",
      "zone_name": "unit.tests",
      "modified_on": "2017-03-11T18:01:43.940682Z",
      "created_on": "2017-03-11T18:01:43.940682Z",
      "meta": {
        "auto_added": false
      }
    },
    {
      "id": "fc12ab34cd5611334422ab3322997657",
      "type": "MX",
      "name": "mx.unit.tests",
      "content": "smtp-1.unit.tests",
      "proxiable": false,
      "proxied": false,
      "ttl": 300,
      "priority": 40,
      "locked": false,
      "zone_id": "ff12ab34cd5611334422ab3322997650",
      "zone_name": "unit.tests",
      "modified_on": "2017-03-11T18:01:43.764273Z",
      "created_on": "2017-03-11T18:01:43.764273Z",
      "meta": {
        "auto_added": false
      }
    },
    {
      "id": "fc12ab34cd5611334422ab3322997658",
      "type": "MX",
      "name": "mx.unit.tests",
      "content": "smtp-2.unit.tests",
      "proxiable": false,
      "proxied": false,
      "ttl": 300,
      "priority": 20,
      "locked": false,
      "zone_id": "ff12ab34cd5611334422ab3322997650",
      "zone_name": "unit.tests",
      "modified_on": "2017-03-11T18:01:43.586007Z",
      "created_on": "2017-03-11T18:01:43.586007Z",
      "meta": {
        "auto_added": false
      }
    },
    {
      "id": "fc12ab34cd5611334422ab3322997659",
      "type": "MX",
      "name": "mx.unit.tests",
      "content": "smtp-3.unit.tests",
      "proxiable": false,
      "proxied": false,
      "ttl": 300,
      "priority": 30,
      "locked": false,
      "zone_id": "ff12ab34cd5611334422ab3322997650",
      "zone_name": "unit.tests",
      "modified_on": "2017-03-11T18:01:43.670592Z",
      "created_on": "2017-03-11T18:01:43.670592Z",
      "meta": {
        "auto_added": false
      }
    },
    {
      "id": "fc12ab34cd5611334422ab3322997660",
      "type": "MX",
      "name": "mx.unit.tests",
      "content": "smtp-4.unit.tests",
      "proxiable": false,
      "proxied": false,
      "ttl": 300,
      "priority": 10,
      "locked": false,
      "zone_id": "ff12ab34cd5611334422ab3322997650",
      "zone_name": "unit.tests",
      "modified_on": "2017-03-11T18:01:43.505671Z",
      "created_on": "2017-03-11T18:01:43.505671Z",
      "meta": {
        "auto_added": false
      }
    }
  ],
  "result_info": {
    "page": 1,
    "per_page": 10,
    "total_pages": 2,
    "count": 10,
    "total_count": 20
  },
  "success": true,
  "errors": [],
  "messages": []
}
