{
  "data": [
    {
      "id": 11189873,
      "zone_id": "unit.tests",
      "parent_id": null,
      "name": "",
      "content": "ns1.dnsimple.com admin.dnsimple.com 1489074932 86400 7200 604800 300",
      "ttl": 3600,
      "priority": null,
      "type": "SOA",
      "regions": [
        "global"
      ],
      "system_record": true,
      "created_at": "2017-03-09T15:55:08Z",
      "updated_at": "2017-03-09T15:56:21Z"
    },
    {
      "id": 11189874,
      "zone_id": "unit.tests",
      "parent_id": null,
      "name": "",
      "content": "ns1.dnsimple.com",
      "ttl": 3600,
      "priority": null,
      "type": "NS",
      "regions": [
        "global"
      ],
      "system_record": true,
      "created_at": "2017-03-09T15:55:08Z",
      "updated_at": "2017-03-09T15:55:08Z"
    },
    {
      "id": 11189875,
      "zone_id": "unit.tests",
      "parent_id": null,
      "name": "",
      "content": "ns2.dnsimple.com",
      "ttl": 3600,
      "priority": null,
      "type": "NS",
      "regions": [
        "global"
      ],
      "system_record": true,
      "created_at": "2017-03-09T15:55:08Z",
      "updated_at": "2017-03-09T15:55:08Z"
    },
    {
      "id": 11189876,
      "zone_id": "unit.tests",
      "parent_id": null,
      "name": "",
      "content": "ns3.dnsimple.com",
      "ttl": 3600,
      "priority": null,
      "type": "NS",
      "regions": [
        "global"
      ],
      "system_record": true,
      "created_at": "2017-03-09T15:55:08Z",
      "updated_at": "2017-03-09T15:55:08Z"
    },
    {
      "id": 11189877,
      "zone_id": "unit.tests",
      "parent_id": null,
      "name": "",
      "content": "ns4.dnsimple.com",
      "ttl": 3600,
      "priority": null,
      "type": "NS",
      "regions": [
        "global"
      ],
      "system_record": true,
      "created_at": "2017-03-09T15:55:08Z",
      "updated_at": "2017-03-09T15:55:08Z"
    },
    {
      "id": 11189878,
      "zone_id": "unit.tests",
      "parent_id": null,
      "name": "_srv._tcp",
      "content": "20 30 foo-1.unit.tests",
      "ttl": 600,
      "priority": 10,
      "type": "SRV",
      "regions": [
        "global"
      ],
      "system_record": false,
      "created_at": "2017-03-09T15:55:08Z",
      "updated_at": "2017-03-09T15:55:08Z"
    },
    {
      "id": 11189879,
      "zone_id": "unit.tests",
      "parent_id": null,
      "name": "_srv._tcp",
      "content": "20 30 foo-2.unit.tests",
      "ttl": 600,
      "priority": 12,
      "type": "SRV",
      "regions": [
        "global"
      ],
      "system_record": false,
      "created_at": "2017-03-09T15:55:08Z",
      "updated_at": "2017-03-09T15:55:08Z"
    },
    {
      "id": 11189880,
      "zone_id": "unit.tests",
      "parent_id": null,
      "name": "under",
      "content": "ns1.unit.tests.",
      "ttl": 3600,
      "priority": null,
      "type": "NS",
      "regions": [
        "global"
      ],
      "system_record": false,
      "created_at": "2017-03-09T15:55:08Z",
      "updated_at": "2017-03-09T15:55:08Z"
    },
    {
      "id": 11189881,
      "zone_id": "unit.tests",
      "parent_id": null,
      "name": "under",
      "content": "ns2.unit.tests.",
      "ttl": 3600,
      "priority": null,
      "type": "NS",
      "regions": [
        "global"
      ],
      "system_record": false,
      "created_at": "2017-03-09T15:55:08Z",
      "updated_at": "2017-03-09T15:55:08Z"
    },
    {
      "id": 11189882,
      "zone_id": "unit.tests",
      "parent_id": null,
      "name": "",
      "content": "1 1 7491973e5f8b39d5327cd4e08bc81b05f7710b49",
      "ttl": 3600,
      "priority": null,
      "type": "SSHFP",
      "regions": [
        "global"
      ],
      "system_record": false,
      "created_at": "2017-03-09T15:55:08Z",
      "updated_at": "2017-03-09T15:55:08Z"
    },
    {
      "id": 11189883,
      "zone_id": "unit.tests",
      "parent_id": null,
      "name": "",
      "content": "1 1 bf6b6825d2977c511a475bbefb88aad54a92ac73",
      "ttl": 3600,
      "priority": null,
      "type": "SSHFP",
      "regions": [
        "global"
      ],
      "system_record": false,
      "created_at": "2017-03-09T15:55:09Z",
      "updated_at": "2017-03-09T15:55:09Z"
    },
    {
      "id": 11189884,
      "zone_id": "unit.tests",
      "parent_id": null,
      "name": "txt",
      "content": "Bah bah black sheep",
      "ttl": 600,
      "priority": null,
      "type": "TXT",
      "regions": [
        "global"
      ],
      "system_record": false,
      "created_at": "2017-03-09T15:55:09Z",
      "updated_at": "2017-03-09T15:55:09Z"
    },
    {
      "id": 11189885,
      "zone_id": "unit.tests",
      "parent_id": null,
      "name": "txt",
      "content": "have you any wool.",
      "ttl": 600,
      "priority": null,
      "type": "TXT",
      "regions": [
        "global"
      ],
      "system_record": false,
      "created_at": "2017-03-09T15:55:09Z",
      "updated_at": "2017-03-09T15:55:09Z"
    },
    {
      "id": 11189886,
      "zone_id": "unit.tests",
      "parent_id": null,
      "name": "",
      "content": "1.2.3.4",
      "ttl": 300,
      "priority": null,
      "type": "A",
      "regions": [
        "global"
      ],
      "system_record": false,
      "created_at": "2017-03-09T15:55:09Z",
      "updated_at": "2017-03-09T15:55:09Z"
    },
    {
      "id": 11189887,
      "zone_id": "unit.tests",
      "parent_id": null,
      "name": "",
      "content": "1.2.3.5",
      "ttl": 300,
      "priority": null,
      "type": "A",
      "regions": [
        "global"
      ],
      "system_record": false,
      "created_at": "2017-03-09T15:55:09Z",
      "updated_at": "2017-03-09T15:55:09Z"
    },
    {
      "id": 11189889,
      "zone_id": "unit.tests",
      "parent_id": null,
      "name": "www",
      "content": "2.2.3.6",
      "ttl": 300,
      "priority": null,
      "type": "A",
      "regions": [
        "global"
      ],
      "system_record": false,
      "created_at": "2017-03-09T15:55:09Z",
      "updated_at": "2017-03-09T15:55:09Z"
    },
    {
      "id": 11189890,
      "zone_id": "unit.tests",
      "parent_id": null,
      "name": "mx",
      "content": "smtp-4.unit.tests",
      "ttl": 300,
      "priority": 10,
      "type": "MX",
      "regions": [
        "global"
      ],
      "system_record": false,
      "created_at": "2017-03-09T15:55:10Z",
      "updated_at": "2017-03-09T15:55:10Z"
    },
    {
      "id": 11189891,
      "zone_id": "unit.tests",
      "parent_id": null,
      "name": "mx",
      "content": "smtp-2.unit.tests",
      "ttl": 300,
      "priority": 20,
      "type": "MX",
      "regions": [
        "global"
      ],
      "system_record": false,
      "created_at": "2017-03-09T15:55:10Z",
      "updated_at": "2017-03-09T15:55:10Z"
    },
    {
      "id": 11189892,
      "zone_id": "unit.tests",
      "parent_id": null,
      "name": "mx",
      "content": "smtp-3.unit.tests",
      "ttl": 300,
      "priority": 30,
      "type": "MX",
      "regions": [
        "global"
      ],
      "system_record": false,
      "created_at": "2017-03-09T15:55:10Z",
      "updated_at": "2017-03-09T15:55:10Z"
    }
  ],
  "pagination": {
    "current_page": 1,
    "per_page": 20,
    "total_entries": 29,
    "total_pages": 2
  }
}
