{
  "data": [
    {
      "id": 11189893,
      "zone_id": "unit.tests",
      "parent_id": null,
      "name": "mx",
      "content": "smtp-1.unit.tests",
      "ttl": 300,
      "priority": 40,
      "type": "MX",
      "regions": [
        "global"
      ],
      "system_record": false,
      "created_at": "2017-03-09T15:55:10Z",
      "updated_at": "2017-03-09T15:55:10Z"
    },
    {
      "id": 11189894,
      "zone_id": "unit.tests",
      "parent_id": null,
      "name": "aaaa",
      "content": "2601:644:500:e210:62f8:1dff:feb8:947a",
      "ttl": 600,
      "priority": null,
      "type": "AAAA",
      "regions": [
        "global"
      ],
      "system_record": false,
      "created_at": "2017-03-09T15:55:10Z",
      "updated_at": "2017-03-09T15:55:10Z"
    },
    {
      "id": 11189895,
      "zone_id": "unit.tests",
      "parent_id": null,
      "name": "cname",
      "content": "unit.tests",
      "ttl": 300,
      "priority": null,
      "type": "CNAME",
      "regions": [
        "global"
      ],
      "system_record": false,
      "created_at": "2017-03-09T15:55:10Z",
      "updated_at": "2017-03-09T15:55:10Z"
    },
    {
      "id": 11189896,
      "zone_id": "unit.tests",
      "parent_id": null,
      "name": "ptr",
      "content": "foo.bar.com.",
      "ttl": 300,
      "priority": null,
      "type": "PTR",
      "regions": [
        "global"
      ],
      "system_record": false,
      "created_at": "2017-03-09T15:55:10Z",
      "updated_at": "2017-03-09T15:55:10Z"
    },
    {
      "id": 11189897,
      "zone_id": "unit.tests",
      "parent_id": null,
      "name": "www.sub",
      "content": "2.2.3.6",
      "ttl": 300,
      "priority": null,
      "type": "A",
      "regions": [
        "global"
      ],
      "system_record": false,
      "created_at": "2017-03-09T15:55:10Z",
      "updated_at": "2017-03-09T15:55:10Z"
    },
    {
      "id": 11189898,
      "zone_id": "unit.tests",
      "parent_id": null,
      "name": "naptr",
      "content": "10 100 \"S\" \"SIP+D2U\" \"!^.*$!sip:info@bar.example.com!\" .",
      "ttl": 600,
      "priority": null,
      "type": "NAPTR",
      "regions": [
        "global"
      ],
      "system_record": false,
      "created_at": "2017-03-09T15:55:11Z",
      "updated_at": "2017-03-09T15:55:11Z"
    },
    {
      "id": 11189899,
      "zone_id": "unit.tests",
      "parent_id": null,
      "name": "naptr",
      "content": "100 100 \"U\" \"SIP+D2U\" \"!^.*$!sip:info@bar.example.com!\" .",
      "ttl": 600,
      "priority": null,
      "type": "NAPTR",
      "regions": [
        "global"
      ],
      "system_record": false,
      "created_at": "2017-03-09T15:55:11Z",
      "updated_at": "2017-03-09T15:55:11Z"
    },
    {
      "id": 11189900,
      "zone_id": "unit.tests",
      "parent_id": null,
      "name": "spf",
      "content": "v=spf1 ip4:192.168.0.1/16-all",
      "ttl": 600,
      "priority": null,
      "type": "SPF",
      "regions": [
        "global"
      ],
      "system_record": false,
      "created_at": "2017-03-09T15:55:11Z",
      "updated_at": "2017-03-09T15:55:11Z"
    },
    {
      "id": 11189901,
      "zone_id": "unit.tests",
      "parent_id": null,
      "name": "txt",
      "content": "v=DKIM1;k=rsa;s=email;h=sha256;p=A/kinda+of/long/string+with+numb3rs",
      "ttl": 600,
      "priority": null,
      "type": "TXT",
      "regions": [
        "global"
      ],
      "system_record": false,
      "created_at": "2017-03-09T15:55:09Z",
      "updated_at": "2017-03-09T15:55:09Z"
    },
    {
      "id": 11188802,
      "zone_id": "unit.tests",
      "parent_id": null,
      "name": "txt",
      "content": "ALIAS for www.unit.tests.",
      "ttl": 600,
      "priority": null,
      "type": "TXT",
      "regions": [
        "global"
      ],
      "system_record": false,
      "created_at": "2017-03-09T15:55:09Z",
      "updated_at": "2017-03-09T15:55:09Z"
    },
    {
      "id": 12188803,
      "zone_id": "unit.tests",
      "parent_id": null,
      "name": "",
      "content": "0 issue \"ca.unit.tests\"",
      "ttl": 3600,
      "priority": null,
      "type": "CAA",
      "regions": [
        "global"
      ],
      "system_record": false,
      "created_at": "2017-03-09T15:55:09Z",
      "updated_at": "2017-03-09T15:55:09Z"
    },
    {
      "id": 12188805,
      "zone_id": "unit.tests",
      "parent_id": null,
      "name": "included",
      "content": "unit.tests",
      "ttl": 3600,
      "priority": null,
      "type": "CNAME",
      "regions": [
        "global"
      ],
      "system_record": false,
      "created_at": "2017-03-09T15:55:09Z",
      "updated_at": "2017-03-09T15:55:09Z"
    }
  ],
  "pagination": {
    "current_page": 2,
    "per_page": 20,
    "total_entries": 32,
    "total_pages": 2
  }
}
